5.1 Bagged trees | Social Data Science with R
…
If you’re using bagging to develop a model, you already have bootstrap resamples. The out-of-bag (OOB) samples are then “free”, computationally. If your sample size is reasonably large (\(n > 1000\)) the OOB estimates of model performance will be similar to those obtained from \(k\)-fold CV, but take only a fraction of the time.

Unfortunately, as of the time of this writing, there is no way to easily access the OOB samples with {baguette}. Luckily, we can fit the model in a slightly different way, using the {ranger} package, and this will allow us to access the OOB samples.

In what follows, we’ll use {ranger} within a {tidymodels} framework to fit and tune a bagged tree model using the OOB samples. The {ranger} package is designed to fit random forests, which we’ll talk about next. Bagged trees, however, are just a special case of random forests where there is no sampling of columns when each tree is built (more on this soon). To fit a bagged tree with {ranger}, we just have to set the mtry argument equal to the number of predictors in our data frame.

Let’s start by re-fitting our bt_mod1 model with {ranger}, using the OOB samples for our model performance. To do this, we’re going to use the fit() function, instead of fit_resamples() (because we’re only going to be fitting the model once). We will therefore need to prep() and bake() our recipe to get our processed training data.

processed_train <- rec %>% 
  prep() %>% 
  bake(new_data = NULL)

processed_train

## # A tibble: 2,767 x 6
##    event_count event_code game_time title     world accuracy_group
##          <dbl>      <dbl>     <dbl> <fct>     <fct> <ord>         
##  1           1       2000         0 Mushroom… TREE… 3             
##  2           3       3010        37 Mushroom… TREE… 3             
##  3           5       3010      3901 Mushroom… TREE… 3             
##  4          10       4025      8400 Mushroom… TREE… 3             
##  5          12       3121      8926 Mushroom… TREE… 3             
##  6          13       4025      9502 Mushroom… TREE… 3             
##  7          16       3121     10210 Mushroom… TREE… 3             
##  8          17       2035     10210 Mushroom… TREE… 3             
##  9          18       2020     10210 Mushroom… TREE… 3             
## 10          20       4070     10543 Mushroom… TREE… 3             
## # … with 2,757 more rows
…
bt_fit3 <- fit(bt_mod3,
               accuracy_group ~ .,
               processed_train)

Now we just pull the OOB predicted probabilities for each class, and add in the observed class.

preds <- bt_fit3$fit$predictions %>% 
  as_tibble() %>% 
  mutate(observed = processed_train$accuracy_group)

preds

## # A tibble: 2,767 x 5
##      `0`   `1`   `2`    `3` observed
##    <dbl> <dbl> <dbl>  <dbl> <ord>   
##  1 0.354     0 0.260 0.386  3       
##  2 0.824     0 0     0.176  3       
##  3 0         0 0.929 0.0714 3       
##  4 0.406     0 0.344 0.25   3       
##  5 0.176     0 0.765 0.0588 3       
##  6 0.111     0 0.111 0.778  3       
##  7 0.227     0 0     0.773  3       
##  8 0.269     0 0.154 0.577  3       
##  9 0.312     0 0.125 0.562  3       
## 10 0.289     0 0.158 0.553  3       
## # … with 2,757 more rows
…
