3.2 Creating a recipe | Social Data Science with R
…
And we see that lang_cd is no longer being caught by the zero variance filter. Next we’ll bake the recipe to actually apply it to our data. If we specify new_data = NULL, bake will apply the operation to the data we specified in the recipe. But we can also pass new data as an additional argument and it will apply the operations to that data instead of the data specified in the recipe.

bake(prepped, new_data = NULL)

## # A tibble: 2,841 x 104
##        id attnd_dist_inst… attnd_schl_inst… enrl_grd partic_dist_ins… partic_schl_ins… lang_cd ncessch   lat   lon
##     <dbl>            <dbl>            <dbl>    <dbl>            <dbl>            <dbl> <fct>     <dbl> <dbl> <dbl>
##  1 154420             2057              481        7             2057              481 E       4.11e11  42.2 -122.
##  2 248739             1978              264        3             1978              264 E       4.11e11  44.3 -122.
##  3 126093             2243             1160        4               NA               NA E       4.10e11  45.5 -123.
##  4 225721             2180              834        5             2180              834 E       4.11e11  45.5 -123.
##  5 110026             2183              942        6             2183              942 E       4.11e11  45.5 -122.
##  6 149751             2084              563        3             2084              563 E       4.10e11  44.1 -123.
##  7 116315             2206             3426        4             2206             3426 E       4.11e11  45.8 -119.
##  8 145793             2180              883        5             2180              883 E       4.11e11  45.5 -123.
##  9  73617             1976             5292        7             1976             5292 E       4.10e11  44.1 -121.
## 10 226521             2043              394        3             2043              394 E       4.10e11  42.4 -123.
## # … with 2,831 more rows, and 94 more variables: score <dbl>, gndr_M <dbl>, ethnic_cd_B <dbl>, ethnic_cd_H <dbl>,
## #   ethnic_cd_I <dbl>, ethnic_cd_M <dbl>, ethnic_cd_P <dbl>, ethnic_cd_W <dbl>, tst_bnch_X2B <dbl>,
## #   tst_bnch_X3B <dbl>, tst_bnch_G4 <dbl>, tst_bnch_G6 <dbl>, tst_bnch_G7 <dbl>, tst_dt_X3.19.2018.0.00.00 <dbl>,
## #   tst_dt_X3.20.2018.0.00.00 <dbl>, tst_dt_X3.21.2018.0.00.00 <dbl>, tst_dt_X3.23.2018.0.00.00 <dbl>,
## #   tst_dt_X4.10.2018.0.00.00 <dbl>, tst_dt_X4.11.2018.0.00.00 <dbl>, tst_dt_X4.12.2018.0.00.00 <dbl>,
## #   tst_dt_X4.13.2018.0.00.00 <dbl>, tst_dt_X4.16.2018.0.00.00 <dbl>, tst_dt_X4.17.2018.0.00.00 <dbl>,
## #   tst_dt_X4.18.2018.0.00.00 <dbl>, tst_dt_X4.19.2018.0.00.00 <dbl>, tst_dt_X4.20.2018.0.00.00 <dbl>,
## #   tst_dt_X4.23.2018.0.00.00 <dbl>, tst_dt_X4.24.2018.0.00.00 <dbl>, tst_dt_X4.25.2018.0.00.00 <dbl>,
## #   tst_dt_X4.26.2018.0.00.00 <dbl>, tst_dt_X4.27.2018.0.00.00 <dbl>, tst_dt_X4.3.2018.0.00.00 <dbl>,
…
rec <- recipe(score ~ ., train) %>% 
  update_role(contains("id"), ncessch, new_role = "id vars") %>% 
  step_mutate(lang_cd = factor(ifelse(is.na(lang_cd), "E", lang_cd)),
              tst_dt = lubridate::mdy_hms(tst_dt)) %>% 
  step_zv(all_predictors()) %>% 
  step_dummy(all_nominal())

And now when we prep/bake the dataset it’s still a date variable, which is what we probably want (it will modeled as a numeric variable).

rec %>% 
  prep() %>% 
  bake(new_data = NULL)

## # A tibble: 2,841 x 54
##        id attnd_dist_inst… attnd_schl_inst… enrl_grd tst_dt              partic_dist_ins… partic_schl_ins… ncessch
##     <dbl>            <dbl>            <dbl>    <dbl> <dttm>                         <dbl>            <dbl>   <dbl>
##  1 154420             2057              481        7 2018-05-29 00:00:00             2057              481 4.11e11
##  2 248739             1978              264        3 2018-05-14 00:00:00             1978              264 4.11e11
##  3 126093             2243             1160        4 2018-05-30 00:00:00               NA               NA 4.10e11
##  4 225721             2180              834        5 2018-05-30 00:00:00             2180              834 4.11e11
##  5 110026             2183              942        6 2018-06-05 00:00:00             2183              942 4.11e11
##  6 149751             2084              563        3 2018-05-18 00:00:00             2084              563 4.10e11
##  7 116315             2206             3426        4 2018-05-18 00:00:00             2206             3426 4.11e11
##  8 145793             2180              883        5 2018-05-09 00:00:00             2180              883 4.11e11
##  9  73617             1976             5292        7 2018-05-24 00:00:00             1976             5292 4.10e11
## 10 226521             2043              394        3 2018-04-26 00:00:00             2043              394 4.10e11
## # … with 2,831 more rows, and 46 more variables: lat <dbl>, lon <dbl>, score <dbl>, gndr_M <dbl>,
## #   ethnic_cd_B <dbl>, ethnic_cd_H <dbl>, ethnic_cd_I <dbl>, ethnic_cd_M <dbl>, ethnic_cd_P <dbl>,
## #   ethnic_cd_W <dbl>, tst_bnch_X2B <dbl>, tst_bnch_X3B <dbl>, tst_bnch_G4 <dbl>, tst_bnch_G6 <dbl>,
## #   tst_bnch_G7 <dbl>, migrant_ed_fg_Y <dbl>, ind_ed_fg_Y <dbl>, sp_ed_fg_Y <dbl>, tag_ed_fg_Y <dbl>,
## #   econ_dsvntg_Y <dbl>, ayp_lep_B <dbl>, ayp_lep_E <dbl>, ayp_lep_F <dbl>, ayp_lep_M <dbl>, ayp_lep_N <dbl>,
## #   ayp_lep_W <dbl>, ayp_lep_X <dbl>, ayp_lep_Y <dbl>, stay_in_dist_Y <dbl>, stay_in_schl_Y <dbl>,
## #   dist_sped_Y <dbl>, trgt_assist_fg_Y <dbl>, ayp_dist_partic_Y <dbl>, ayp_schl_partic_Y <dbl>,
## #   ayp_dist_prfrm_Y <dbl>, ayp_schl_prfrm_Y <dbl>, rc_dist_partic_Y <dbl>, rc_schl_partic_Y <dbl>,
## #   rc_dist_prfrm_Y <dbl>, rc_schl_prfrm_Y <dbl>, lang_cd_E <dbl>, tst_atmpt_fg_Y <dbl>,
…
