5.3 Feature and model interpretation | Social Data Science with R
…
# fit the model
rf_fit_reg_final <- fit(rf_mod_reg_final,
                        score ~ .,
                        processed_reg)

And now we can request variable importance scores with vip::vi(), or a variable importance plot with vip::vip(). Let’s first look at the scores.

library(vip)
vi(rf_fit_reg_final$fit)

## # A tibble: 31 x 2
##    Variable    Importance
##    <chr>            <dbl>
##  1 enrl_grd      7574484.
##  2 tag_ed_fg     6912953.
##  3 econ_dsvntg   6686036.
##  4 sp_ed_fg      5728096.
##  5 lon           4258608.
##  6 lat           4057123.
##  7 time_index    3781738.
##  8 tst_bnch      3715267.
##  9 ayp_lep       3672420.
## 10 ethnic_cd     2556395.
## # … with 21 more rows
…
