3.8 Interactions | Social Data Science with R
…
or equivalently

lm(rdg_spr ~ rdg_fall + ell + rdg_fall:ell, data = benchmarks)

However, this is doing some work under the hood for you which might go unnoticed. First, it’s dummy-coding ell, then it’s creating, in this case, two new variables that are equal to \(ELL_{Monitor} \times Rdg_{fall}\) and \(ELL_{Non-ELL} \times Rdg_{fall}\) (with \(ELL_{Active}\) set as the reference group by default).

Let’s try doing this manually. First we need to dummy code ell. To make things a bit more clear, I’ll only select the variables here that we’re using in our modeling.

dummies <- benchmarks %>% 
  select(rdg_fall, ell, rdg_spr) %>% 
  mutate(ell_monitor = ifelse(ell == "Monitor", 1, 0),
         ell_non = ifelse(ell == "Non-ELL", 1, 0),)
dummies

## # A tibble: 174 x 5
##    rdg_fall ell     rdg_spr ell_monitor ell_non
##       <dbl> <chr>     <dbl>       <dbl>   <dbl>
##  1      181 Active      194           0       0
##  2      166 Non-ELL     159           0       1
##  3      216 Non-ELL     198           0       1
##  4      203 Non-ELL     204           0       1
##  5      198 Active      173           0       0
##  6      188 Active      173           0       0
##  7      202 Monitor     200           1       0
##  8      182 Active      206           0       0
##  9      194 Non-ELL     191           0       1
## 10      170 Active      185           0       0
## # … with 164 more rows

Next, we’ll multiply each of these dummy variables by rdg_fall.

interactions <- dummies %>% 
  mutate(fall_monitor = rdg_fall * ell_monitor,
         fall_non = rdg_fall * ell_non)
interactions

## # A tibble: 174 x 7
##    rdg_fall ell     rdg_spr ell_monitor ell_non fall_monitor fall_non
##       <dbl> <chr>     <dbl>       <dbl>   <dbl>        <dbl>    <dbl>
##  1      181 Active      194           0       0            0        0
##  2      166 Non-ELL     159           0       1            0      166
##  3      216 Non-ELL     198           0       1            0      216
##  4      203 Non-ELL     204           0       1            0      203
##  5      198 Active      173           0       0            0        0
##  6      188 Active      173           0       0            0        0
##  7      202 Monitor     200           1       0          202        0
##  8      182 Active      206           0       0            0        0
##  9      194 Non-ELL     191           0       1            0      194
## 10      170 Active      185           0       0            0        0
## # … with 164 more rows
…
3.8.2 Creating interactions with {recipes}

Specifying interactions in a recipe is similar to other steps, with one small exception, which is that the use of the tilde, ~, is required. Note that, once again, order does matter, and you should always do your dummy coding before specifying interactions with categorical variables. In the example before, this would correspond to

recipe(rdg_spr ~ rdg_fall + ell, benchmarks) %>% 
  step_dummy(all_nominal()) %>% 
  step_interact(~rdg_fall:starts_with("ell")) %>% 
  prep() %>% 
  bake(new_data = NULL)

## # A tibble: 174 x 6
##    rdg_fall rdg_spr ell_Monitor ell_Non.ELL rdg_fall_x_ell_Monitor rdg_fall_x_ell_Non.ELL
##       <dbl>   <dbl>       <dbl>       <dbl>                  <dbl>                  <dbl>
##  1      181     194           0           0                      0                      0
##  2      166     159           0           1                      0                    166
##  3      216     198           0           1                      0                    216
##  4      203     204           0           1                      0                    203
##  5      198     173           0           0                      0                      0
##  6      188     173           0           0                      0                      0
##  7      202     200           1           0                    202                      0
##  8      182     206           0           0                      0                      0
##  9      194     191           0           1                      0                    194
## 10      170     185           0           0                      0                      0
## # … with 164 more rows

There are a few things to mention here. First, the data do look identical (minus the column names) to what we created by hand, so that’s good news. However, we also used starts_with here, rather than just specifying something like step_interact(~rdg_fall:ell). This is because after dummy coding, the column names change (as you can see in the above). By specifying starts_with, we are ensuring that we get all the interactions we need. If we forget this step, we end up with the wrong output, along with a warning.

recipe(rdg_spr ~ rdg_fall + ell, benchmarks) %>% 
  step_dummy(all_nominal()) %>% 
  step_interact(~rdg_fall:ell) %>% 
  prep() %>% 
  bake(new_data = NULL)

## # A tibble: 174 x 4
##    rdg_fall rdg_spr ell_Monitor ell_Non.ELL
##       <dbl>   <dbl>       <dbl>       <dbl>
##  1      181     194           0           0
##  2      166     159           0           1
##  3      216     198           0           1
##  4      203     204           0           1
##  5      198     173           0           0
##  6      188     173           0           0
##  7      202     200           1           0
##  8      182     206           0           0
##  9      194     191           0           1
## 10      170     185           0           0
## # … with 164 more rows
…
