3.5 Missing data | Social Data Science with R
…
## [1] 185.9315

median(airquality$Solar.R, na.rm = TRUE)

## [1] 205

If we use mean or median imputation, we just replace the missing values with these sample statistics. Let’s do this with {recipes}, assuming we’ll be fitting a model where Ozone is the outcome, predicted by all other variables in the dataset.

recipe(Ozone ~ ., data = airquality) %>% 
  step_meanimpute(all_predictors()) %>% 
  prep() %>% 
  bake(new_data = NULL)

## # A tibble: 153 x 6
##    Solar.R  Wind  Temp Month   Day Ozone
##      <int> <dbl> <int> <int> <int> <int>
##  1     190   7.4    67     5     1    41
##  2     118   8      72     5     2    36
##  3     149  12.6    74     5     3    12
##  4     313  11.5    62     5     4    18
##  5     186  14.3    56     5     5    NA
##  6     186  14.9    66     5     6    28
##  7     299   8.6    65     5     7    23
##  8      99  13.8    59     5     8    19
##  9      19  20.1    61     5     9     8
## 10     194   8.6    69     5    10    NA
## # … with 143 more rows

As we can see, the value \(186\) has been imputed for rows 5 and 6, which is the integer version of the sample mean (an integer was imputed because the column was already an integer, and not a double).

Let’s try the same thing with median imputation

recipe(Ozone ~ ., data = airquality) %>% 
  step_medianimpute(all_predictors()) %>% 
  prep() %>% 
  bake(new_data = NULL)

## # A tibble: 153 x 6
##    Solar.R  Wind  Temp Month   Day Ozone
##      <int> <dbl> <int> <int> <int> <int>
##  1     190   7.4    67     5     1    41
##  2     118   8      72     5     2    36
##  3     149  12.6    74     5     3    12
##  4     313  11.5    62     5     4    18
##  5     205  14.3    56     5     5    NA
##  6     205  14.9    66     5     6    28
##  7     299   8.6    65     5     7    23
##  8      99  13.8    59     5     8    19
##  9      19  20.1    61     5     9     8
## 10     194   8.6    69     5    10    NA
## # … with 143 more rows
…
Using our model, we would predict the following score for this missing value

predict(m, newdata = row6)

##        1 
## 189.3325

Let’s try this using {recipes}.

recipe(Ozone ~ ., data = airquality) %>% 
  step_impute_linear(all_predictors()) %>% 
  prep() %>% 
  bake(new_data = NULL)

## # A tibble: 153 x 6
##    Solar.R  Wind  Temp Month   Day Ozone
##      <int> <dbl> <int> <int> <int> <int>
##  1     190   7.4    67     5     1    41
##  2     118   8      72     5     2    36
##  3     149  12.6    74     5     3    12
##  4     313  11.5    62     5     4    18
##  5     152  14.3    56     5     5    NA
##  6     189  14.9    66     5     6    28
##  7     299   8.6    65     5     7    23
##  8      99  13.8    59     5     8    19
##  9      19  20.1    61     5     9     8
## 10     194   8.6    69     5    10    NA
## # … with 143 more rows

And we see two important things here. First, row 6 for Solar.R is indeed as we expected it to be (albeit, in integer form). Second, the imputed values for rows 5 and 6 are now different, which is the first time we’ve seen this via imputation.

The same basic approach can be used for essentially any statistical model. The {recipes} package has currently implemented linear imputation (as above), \(k\)-nearest neighbor imputation, and bagged imputation (via bagged trees). Let’s see how rows 5 and 6 differ with these approaches.

recipe(Ozone ~ ., data = airquality) %>% 
  step_knnimpute(all_predictors()) %>% 
  prep() %>% 
  bake(new_data = NULL)

## # A tibble: 153 x 6
##    Solar.R  Wind  Temp Month   Day Ozone
##      <int> <dbl> <int> <int> <int> <int>
##  1     190   7.4    67     5     1    41
##  2     118   8      72     5     2    36
##  3     149  12.6    74     5     3    12
##  4     313  11.5    62     5     4    18
##  5     159  14.3    56     5     5    NA
##  6     220  14.9    66     5     6    28
##  7     299   8.6    65     5     7    23
##  8      99  13.8    59     5     8    19
##  9      19  20.1    61     5     9     8
## 10     194   8.6    69     5    10    NA
## # … with 143 more rows

recipe(Ozone ~ ., data = airquality) %>% 
  step_bagimpute(all_predictors()) %>% 
  prep() %>% 
  bake(new_data = NULL)

## # A tibble: 153 x 6
##    Solar.R  Wind  Temp Month   Day Ozone
##      <int> <dbl> <int> <int> <int> <int>
##  1     190   7.4    67     5     1    41
##  2     118   8      72     5     2    36
##  3     149  12.6    74     5     3    12
##  4     313  11.5    62     5     4    18
##  5     129  14.3    56     5     5    NA
##  6     244  14.9    66     5     6    28
##  7     299   8.6    65     5     7    23
##  8      99  13.8    59     5     8    19
##  9      19  20.1    61     5     9     8
## 10     194   8.6    69     5    10    NA
## # … with 143 more rows
…
