3.7 Nonlinearity | Social Data Science with R
…
Now let’s replicate it using {recipes}.

sim <- sim %>% 
  select(x, y)

poly_rec <- recipe(y ~ ., sim) %>% 
  step_poly(all_predictors(), degree = 3)

poly_d <- poly_rec %>% 
  prep() %>% 
  bake(new_data = NULL)

poly_d

## # A tibble: 100 x 4
##        y x_poly_1 x_poly_2 x_poly_3
##    <dbl>    <dbl>    <dbl>    <dbl>
##  1  9.23   -0.171    0.217  -0.249 
##  2 13.2    -0.168    0.204  -0.219 
##  3 15.7    -0.165    0.191  -0.190 
##  4 16.0    -0.161    0.178  -0.163 
##  5 18.2    -0.158    0.166  -0.137 
##  6 19.0    -0.154    0.154  -0.113 
##  7 19.8    -0.151    0.142  -0.0904
##  8 21.3    -0.147    0.131  -0.0690
##  9 20.0    -0.144    0.119  -0.0489
## 10 22.5    -0.140    0.108  -0.0302
## # … with 90 more rows
…
3.7.2.1 Basis expansion with {recipes}

Basis expansion via recipes proceeds in much the same way as we’ve seen before. We just specify a step identifying the the type of basis expansion we want to conduct, along with any additional arguments like the degrees of freedom (number of knots).

Let’s try building a dataset using basis expansion with a B-Spline

bs_d <- recipe(y ~ x, data = sim) %>% 
  step_bs(x, deg_free = 8) %>% 
  prep() %>% 
  bake(new_data = NULL)

bs_d

## # A tibble: 100 x 9
##        y x_bs_1  x_bs_2    x_bs_3 x_bs_4 x_bs_5 x_bs_6 x_bs_7 x_bs_8
##    <dbl>  <dbl>   <dbl>     <dbl>  <dbl>  <dbl>  <dbl>  <dbl>  <dbl>
##  1  9.23  0     0       0              0      0      0      0      0
##  2 13.2   0.166 0.00531 0.0000371      0      0      0      0      0
##  3 15.7   0.301 0.0204  0.000297       0      0      0      0      0
##  4 16.0   0.407 0.0441  0.00100        0      0      0      0      0
##  5 18.2   0.488 0.0751  0.00237        0      0      0      0      0
##  6 19.0   0.545 0.112   0.00464        0      0      0      0      0
##  7 19.8   0.580 0.154   0.00801        0      0      0      0      0
##  8 21.3   0.596 0.200   0.0127         0      0      0      0      0
##  9 20.0   0.596 0.248   0.0190         0      0      0      0      0
## 10 22.5   0.582 0.298   0.0270         0      0      0      0      0
## # … with 90 more rows
…
