3.9 PCA | Social Data Science with R
…
A few things are of note here. First, it appears the majority of the variance is accounted for by our first few components, which is not altogether surprising given that we already new the first 10 components accounted for approximately 85% of the total variability. However, you might also wonder why there are so many freaking components shown?! I thought we only asked for five!? That is true. But the model actually estimates all the components, and then just pulls out whatever we ask, based on either the threshold or the num_comp arguments. For example, let’s bake the five component recipe on the full training data.

rec_5 %>% 
  prep() %>% 
  bake(new_data = NULL)

## # A tibble: 2,841 x 13
##        id attnd_dist_inst_id attnd_schl_inst_id tst_dt              partic_dist_inst_id
##     <dbl>              <dbl>              <dbl> <dttm>                            <dbl>
##  1  62576               2083               1353 2018-05-16 00:00:00                2083
##  2  71424               2180                878 2018-04-24 00:00:00                2180
##  3 179893               2244               1334 2018-05-25 00:00:00                2244
##  4 136083               2142               4858 2018-05-24 00:00:00                2142
##  5 196809               2212               1068 2018-05-16 00:00:00                2212
##  6  13931               2088                581 2018-06-06 00:00:00                2088
##  7 103344               1926                102 2018-06-04 00:00:00                1926
##  8 105122               2142                766 2018-05-08 00:00:00                2142
##  9 172543               1965                197 2018-05-23 00:00:00                1965
## 10  45153               2083                542 2018-05-10 00:00:00                2083
## # … with 2,831 more rows, and 8 more variables: partic_schl_inst_id <dbl>, ncessch <dbl>,
## #   score <dbl>, PC1 <dbl>, PC2 <dbl>, PC3 <dbl>, PC4 <dbl>, PC5 <dbl>
…
