5.2 Random Forests | Social Data Science with R
…
5.2.1.1 A classification example

Let’s continue with our classification example, using the same training data and recipe we used in the previous section. As a reminder, the recipe looked like this:

rec <- recipe(accuracy_group ~ ., data = train) 

And we prepared the data for analysis so it looked like this:

processed_train <- rec %>% 
  prep() %>% 
  bake(new_data = NULL)

processed_train

## # A tibble: 2,767 x 6
##    event_count event_code game_time title     world accuracy_group
##          <dbl>      <dbl>     <dbl> <fct>     <fct> <ord>         
##  1           1       2000         0 Mushroom… TREE… 3             
##  2           3       3010        37 Mushroom… TREE… 3             
##  3           5       3010      3901 Mushroom… TREE… 3             
##  4          10       4025      8400 Mushroom… TREE… 3             
##  5          12       3121      8926 Mushroom… TREE… 3             
##  6          13       4025      9502 Mushroom… TREE… 3             
##  7          16       3121     10210 Mushroom… TREE… 3             
##  8          17       2035     10210 Mushroom… TREE… 3             
##  9          18       2020     10210 Mushroom… TREE… 3             
## 10          20       4070     10543 Mushroom… TREE… 3             
## # … with 2,757 more rows
…
And as we can see, we’re actually pretty safe with a much lower value, perhaps even as low as 100. However, because the models run very fast, we won’t worry too about this too much. When we conduct our model tuning, we’ll drop to 500 trees instead of 1000 (still well above what it appears is needed).

Let’s see if we can improve performance by changing the mtry or min_n. Because we only have five predictor variables in this case, we don’t have a huge range to evaluate with mtry. But let’s setup a regular grid looking at values of 2, 3, 4 and 5 for mtry, and min_n values of 2, 5, 10, 15, 20, and 25. We can then use our fit_rf() function again, but this time setting the number of trees and looping through each of our mtry and min_n values.

grid <- expand.grid(mtry = 2:5,
                    min_n = c(2, seq(5, 25, 5)))

rf_tune <- map2_df(grid$mtry, grid$min_n, ~fit_rf(500, .x, .y))

rf_tune %>% 
  arrange(desc(.estimate))

## # A tibble: 24 x 7
##    .metric .estimator .estimate trees  mtry min_n model   
##    <chr>   <chr>          <dbl> <dbl> <int> <dbl> <list>  
##  1 roc_auc hand_till      0.859   500     5     5 <fit[+]>
##  2 roc_auc hand_till      0.859   500     5    10 <fit[+]>
##  3 roc_auc hand_till      0.857   500     5    20 <fit[+]>
##  4 roc_auc hand_till      0.857   500     5    15 <fit[+]>
##  5 roc_auc hand_till      0.856   500     4    10 <fit[+]>
##  6 roc_auc hand_till      0.856   500     4    15 <fit[+]>
##  7 roc_auc hand_till      0.855   500     5     2 <fit[+]>
##  8 roc_auc hand_till      0.855   500     4     5 <fit[+]>
##  9 roc_auc hand_till      0.855   500     5    25 <fit[+]>
## 10 roc_auc hand_till      0.854   500     4    20 <fit[+]>
## # … with 14 more rows
…
In cases where the time window is missing, imputes with the median of the column for all numeric columns

Removes zero variance predictors

Next, we want to process the data using this recipe. Note that after we bake() the data, we remove those variables that are not predictors. Note that it might be worth considering keeping a categorical version of the school ID in the model (given that the school in which a student is enrolled is likely related to their score), but to keep things simple we’ll just remove all ID variables for now.

processed_reg <- rec_reg %>% 
  prep() %>% 
  bake(new_data = NULL) %>% 
  select(-contains("id"), -ncessch, -tst_dt)

processed_reg

## # A tibble: 7,104 x 32
##    gndr  ethnic_cd enrl_grd tst_bnch migrant_ed_fg ind_ed_fg
##    <fct> <fct>        <dbl> <fct>    <fct>         <fct>    
##  1 M     W                3 1B       N             N        
##  2 M     W                8 3B       N             N        
##  3 M     W                3 1B       N             N        
##  4 F     H                3 1B       N             N        
##  5 F     H                5 2B       N             N        
##  6 F     W                4 G4       N             N        
##  7 F     W                7 G7       N             N        
##  8 M     W                3 1B       N             N        
##  9 M     H                8 3B       N             N        
## 10 M     W                4 G4       N             N        
## # … with 7,094 more rows, and 26 more variables: sp_ed_fg <fct>,
## #   tag_ed_fg <fct>, econ_dsvntg <fct>, ayp_lep <fct>,
## #   stay_in_dist <fct>, stay_in_schl <fct>, dist_sped <fct>,
## #   trgt_assist_fg <fct>, ayp_dist_partic <fct>,
## #   ayp_schl_partic <fct>, ayp_dist_prfrm <fct>,
## #   ayp_schl_prfrm <fct>, rc_dist_partic <fct>,
## #   rc_schl_partic <fct>, rc_dist_prfrm <fct>,
## #   rc_schl_prfrm <fct>, lang_cd <fct>, tst_atmpt_fg <fct>,
## #   grp_rpt_dist_partic <fct>, grp_rpt_schl_partic <fct>,
…
And now we’ll use our function from above to fit each of these models, evaluating each with the OOB RMSE. We’ll start out with 1000 trees, then inspect that with our finalized model to make sure it is sufficient. Note that, even with using the OOB samples for our tuning, the following code takes a decent amount of time to run.

tic()
rf_reg_fits <- map2_df(grid_reg$mtry, grid_reg$min_n, 
                       ~rf_fit_reg(1000, .x, .y))
toc()

## 774.04 sec elapsed

rf_reg_fits %>% 
  arrange(rmse)

## # A tibble: 66 x 5
##     rmse trees  mtry min_n model   
##    <dbl> <dbl> <int> <dbl> <list>  
##  1  87.8  1000     7    20 <fit[+]>
##  2  87.9  1000     6    15 <fit[+]>
##  3  87.9  1000     7    25 <fit[+]>
##  4  87.9  1000     6    25 <fit[+]>
##  5  87.9  1000     7    15 <fit[+]>
##  6  87.9  1000     8    25 <fit[+]>
##  7  87.9  1000     6    20 <fit[+]>
##  8  87.9  1000     6    10 <fit[+]>
##  9  88.0  1000     7    10 <fit[+]>
## 10  88.0  1000     6     5 <fit[+]>
## # … with 56 more rows
…
