4.4 Tuning decision trees | Social Data Science with R
…
## 189.721 sec elapsed

First let’s look at our results by hyperparameter. We can use collect_metrics to get a summary (mean) of the metrics we set (which we didn’t, so we’ll get the defaults, which in this case are roc_auc and accuracy) across folds. You can optionally get te results by fold (no summarizing) by specifying summarize = FALSE.

dt_tune_metrics <- collect_metrics(dt_tune_fit)
dt_tune_metrics

## # A tibble: 100 x 8
##    cost_complexity min_n .metric  .estimator  mean     n std_err .config
##              <dbl> <int> <chr>    <chr>      <dbl> <int>   <dbl> <chr>  
##  1    0.0000000001     2 accuracy multiclass 0.692    10  0.0187 Model01
##  2    0.0000000001     2 roc_auc  hand_till  0.770    10  0.0177 Model01
##  3    0.000000001      2 accuracy multiclass 0.692    10  0.0187 Model02
##  4    0.000000001      2 roc_auc  hand_till  0.770    10  0.0177 Model02
##  5    0.00000001       2 accuracy multiclass 0.692    10  0.0187 Model03
##  6    0.00000001       2 roc_auc  hand_till  0.770    10  0.0177 Model03
##  7    0.0000001        2 accuracy multiclass 0.692    10  0.0187 Model04
##  8    0.0000001        2 roc_auc  hand_till  0.770    10  0.0177 Model04
##  9    0.000001         2 accuracy multiclass 0.692    10  0.0187 Model05
## 10    0.000001         2 roc_auc  hand_till  0.770    10  0.0177 Model05
## # … with 90 more rows
…
dt_finalized$.metrics[[1]]

## # A tibble: 2 x 3
##   .metric  .estimator .estimate
##   <chr>    <chr>          <dbl>
## 1 accuracy multiclass     0.712
## 2 roc_auc  hand_till      0.871

unsurprisingly, our AUC is a bit lower for our test set. What if we want our predictions?

predictions <- dt_finalized$.predictions[[1]]
predictions

## # A tibble: 156 x 6
##    .pred_0 .pred_2 .pred_3  .row .pred_class accuracy_group
##      <dbl>   <dbl>   <dbl> <int> <fct>       <fct>         
##  1   0.12    0.08    0.8       6 3           3             
##  2   0.12    0.08    0.8      10 3           3             
##  3   0.12    0.08    0.8      11 3           3             
##  4   0.12    0.08    0.8      19 3           3             
##  5   0.5     0.25    0.25     21 0           3             
##  6   0.308   0.231   0.462    26 3           3             
##  7   0       0.667   0.333    29 2           3             
##  8   0.154   0.385   0.462    30 3           3             
##  9   0       0.250   0.75     32 3           3             
## 10   0       0.250   0.75     34 3           3             
## # … with 146 more rows
…
